{
    "name": "FA",
    "ports": [
        {"id": 0, "dir": "input", "name": "A"},
        {"id": 1, "dir": "input", "name": "B"},
        {"id": 2, "dir": "input", "name": "CI"},
        {"id": 3, "dir": "output", "name": "S"},
        {"id": 4, "dir": "output", "name": "CO"}
    ],
    "wires": [
        {"id": 5, "name": "W1"},
        {"id": 6, "name": "W2"},
        {"id": 7, "name": "W3"}
    ],
    "gates": [
        {
            "id": 0,
            "name": "U0",
            "type": "xor",
            "pins": [5, 0, 1]
        },
        {
            "id": 1,
            "name": "U1",
            "type": "xor",
            "pins": [3, 5, 2]
        },
        {
            "id": 2,
            "name": "U2",
            "type": "and",
            "pins": [6, 0, 1]
        },
        {
            "id": 3,
            "name": "U3",
            "type": "and",
            "pins": [7, 5, 2]
        },
        {
            "id": 4,
            "name": "U4",
            "type": "or",
            "pins": [4, 6, 7]
        }
    ]
}